^D:\STUDIUM\7. SEMESTER\KI FÜR GAMES\ÜBUNG\ENTSCHEIDUNGSFINDUNG\ENTSCHEIDUNGSFINDUNG\ENTSCHEIDUNGSFINDUNG\PCH.CPP
D:\STUDIUM\7. SEMESTER\KI FüR GAMES\ÜBUNG\ENTSCHEIDUNGSFINDUNG\ENTSCHEIDUNGSFINDUNG\ENTSCHEIDUNGSFINDUNG\DEBUG\ENTSCHEIDUNGSFINDUNG.PCH
D:\STUDIUM\7. SEMESTER\KI FüR GAMES\ÜBUNG\ENTSCHEIDUNGSFINDUNG\ENTSCHEIDUNGSFINDUNG\ENTSCHEIDUNGSFINDUNG\DEBUG\VC141.PDB
D:\STUDIUM\7. SEMESTER\KI FüR GAMES\ÜBUNG\ENTSCHEIDUNGSFINDUNG\ENTSCHEIDUNGSFINDUNG\ENTSCHEIDUNGSFINDUNG\DEBUG\VC141.IDB
D:\STUDIUM\7. SEMESTER\KI FüR GAMES\ÜBUNG\ENTSCHEIDUNGSFINDUNG\ENTSCHEIDUNGSFINDUNG\ENTSCHEIDUNGSFINDUNG\DEBUG\PCH.OBJ
^D:\STUDIUM\7. SEMESTER\KI FÜR GAMES\ÜBUNG\ENTSCHEIDUNGSFINDUNG\ENTSCHEIDUNGSFINDUNG\ENTSCHEIDUNGSFINDUNG\FSM.CPP|D:\STUDIUM\7. SEMESTER\KI FÜR GAMES\ÜBUNG\ENTSCHEIDUNGSFINDUNG\ENTSCHEIDUNGSFINDUNG\ENTSCHEIDUNGSFINDUNG\UEBERGANG.CPP
D:\STUDIUM\7. SEMESTER\KI FüR GAMES\ÜBUNG\ENTSCHEIDUNGSFINDUNG\ENTSCHEIDUNGSFINDUNG\ENTSCHEIDUNGSFINDUNG\DEBUG\VC141.PDB
D:\STUDIUM\7. SEMESTER\KI FüR GAMES\ÜBUNG\ENTSCHEIDUNGSFINDUNG\ENTSCHEIDUNGSFINDUNG\ENTSCHEIDUNGSFINDUNG\DEBUG\VC141.IDB
D:\STUDIUM\7. SEMESTER\KI FüR GAMES\ÜBUNG\ENTSCHEIDUNGSFINDUNG\ENTSCHEIDUNGSFINDUNG\ENTSCHEIDUNGSFINDUNG\DEBUG\FSM.OBJ
^D:\STUDIUM\7. SEMESTER\KI FÜR GAMES\ÜBUNG\ENTSCHEIDUNGSFINDUNG\ENTSCHEIDUNGSFINDUNG\ENTSCHEIDUNGSFINDUNG\ENTSCHEIDUNGSFINDUNG.CPP|D:\STUDIUM\7. SEMESTER\KI FÜR GAMES\ÜBUNG\ENTSCHEIDUNGSFINDUNG\ENTSCHEIDUNGSFINDUNG\ENTSCHEIDUNGSFINDUNG\FSM.CPP|D:\STUDIUM\7. SEMESTER\KI FÜR GAMES\ÜBUNG\ENTSCHEIDUNGSFINDUNG\ENTSCHEIDUNGSFINDUNG\ENTSCHEIDUNGSFINDUNG\UEBERGANG.CPP|D:\STUDIUM\7. SEMESTER\KI FÜR GAMES\ÜBUNG\ENTSCHEIDUNGSFINDUNG\ENTSCHEIDUNGSFINDUNG\ENTSCHEIDUNGSFINDUNG\ZUSTAND.CPP
D:\STUDIUM\7. SEMESTER\KI FüR GAMES\ÜBUNG\ENTSCHEIDUNGSFINDUNG\ENTSCHEIDUNGSFINDUNG\ENTSCHEIDUNGSFINDUNG\DEBUG\VC141.PDB
D:\STUDIUM\7. SEMESTER\KI FüR GAMES\ÜBUNG\ENTSCHEIDUNGSFINDUNG\ENTSCHEIDUNGSFINDUNG\ENTSCHEIDUNGSFINDUNG\DEBUG\VC141.IDB
D:\STUDIUM\7. SEMESTER\KI FüR GAMES\ÜBUNG\ENTSCHEIDUNGSFINDUNG\ENTSCHEIDUNGSFINDUNG\ENTSCHEIDUNGSFINDUNG\DEBUG\ZUSTAND.OBJ
D:\STUDIUM\7. SEMESTER\KI FüR GAMES\ÜBUNG\ENTSCHEIDUNGSFINDUNG\ENTSCHEIDUNGSFINDUNG\ENTSCHEIDUNGSFINDUNG\DEBUG\UEBERGANG.OBJ
D:\STUDIUM\7. SEMESTER\KI FüR GAMES\ÜBUNG\ENTSCHEIDUNGSFINDUNG\ENTSCHEIDUNGSFINDUNG\ENTSCHEIDUNGSFINDUNG\DEBUG\FSM.OBJ
D:\STUDIUM\7. SEMESTER\KI FüR GAMES\ÜBUNG\ENTSCHEIDUNGSFINDUNG\ENTSCHEIDUNGSFINDUNG\ENTSCHEIDUNGSFINDUNG\DEBUG\ENTSCHEIDUNGSFINDUNG.OBJ
^D:\STUDIUM\7. SEMESTER\KI FÜR GAMES\ÜBUNG\ENTSCHEIDUNGSFINDUNG\ENTSCHEIDUNGSFINDUNG\ENTSCHEIDUNGSFINDUNG\UEBERGANG.CPP
D:\STUDIUM\7. SEMESTER\KI FÜR GAMES\ÜBUNG\ENTSCHEIDUNGSFINDUNG\ENTSCHEIDUNGSFINDUNG\ENTSCHEIDUNGSFINDUNG\DEBUG\VC141.PDB
^D:\STUDIUM\7. SEMESTER\KI FÜR GAMES\ÜBUNG\ENTSCHEIDUNGSFINDUNG\ENTSCHEIDUNGSFINDUNG\ENTSCHEIDUNGSFINDUNG\ZUSTAND.CPP
D:\STUDIUM\7. SEMESTER\KI FÜR GAMES\ÜBUNG\ENTSCHEIDUNGSFINDUNG\ENTSCHEIDUNGSFINDUNG\ENTSCHEIDUNGSFINDUNG\DEBUG\VC141.PDB
^D:\STUDIUM\7. SEMESTER\KI FÜR GAMES\ÜBUNG\ENTSCHEIDUNGSFINDUNG\ENTSCHEIDUNGSFINDUNG\ENTSCHEIDUNGSFINDUNG\ENTSCHEIDUNGSFINDUNG.CPP|D:\STUDIUM\7. SEMESTER\KI FÜR GAMES\ÜBUNG\ENTSCHEIDUNGSFINDUNG\ENTSCHEIDUNGSFINDUNG\ENTSCHEIDUNGSFINDUNG\FSM.CPP
D:\STUDIUM\7. SEMESTER\KI FüR GAMES\ÜBUNG\ENTSCHEIDUNGSFINDUNG\ENTSCHEIDUNGSFINDUNG\ENTSCHEIDUNGSFINDUNG\DEBUG\VC141.PDB
D:\STUDIUM\7. SEMESTER\KI FüR GAMES\ÜBUNG\ENTSCHEIDUNGSFINDUNG\ENTSCHEIDUNGSFINDUNG\ENTSCHEIDUNGSFINDUNG\DEBUG\VC141.IDB
D:\STUDIUM\7. SEMESTER\KI FüR GAMES\ÜBUNG\ENTSCHEIDUNGSFINDUNG\ENTSCHEIDUNGSFINDUNG\ENTSCHEIDUNGSFINDUNG\DEBUG\FSM.OBJ
D:\STUDIUM\7. SEMESTER\KI FüR GAMES\ÜBUNG\ENTSCHEIDUNGSFINDUNG\ENTSCHEIDUNGSFINDUNG\ENTSCHEIDUNGSFINDUNG\DEBUG\ENTSCHEIDUNGSFINDUNG.OBJ
^D:\STUDIUM\7. SEMESTER\KI FÜR GAMES\ÜBUNG\ENTSCHEIDUNGSFINDUNG\ENTSCHEIDUNGSFINDUNG\ENTSCHEIDUNGSFINDUNG\ENTSCHEIDUNGSFINDUNG.CPP
D:\STUDIUM\7. SEMESTER\KI FÜR GAMES\ÜBUNG\ENTSCHEIDUNGSFINDUNG\ENTSCHEIDUNGSFINDUNG\ENTSCHEIDUNGSFINDUNG\DEBUG\VC141.PDB
^D:\STUDIUM\7. SEMESTER\KI FÜR GAMES\ÜBUNG\ENTSCHEIDUNGSFINDUNG\ENTSCHEIDUNGSFINDUNG\ENTSCHEIDUNGSFINDUNG\FSM.CPP
D:\STUDIUM\7. SEMESTER\KI FÜR GAMES\ÜBUNG\ENTSCHEIDUNGSFINDUNG\ENTSCHEIDUNGSFINDUNG\ENTSCHEIDUNGSFINDUNG\DEBUG\VC141.PDB
